{
	"info": {
		"_postman_id": "8fc1d0e7-b316-4e9d-b997-46ad1c8f8403",
		"name": "gcash-refresher",
		"schema": "https://schema.getpostman.com/json/collection/v2.1.0/collection.json"
	},
	"item": [
		{
			"name": "kong",
			"item": [
				{
					"name": "Get Services",
					"request": {
						"method": "GET",
						"header": [],
						"url": {
							"raw": "http://localhost:8001/services",
							"protocol": "http",
							"host": [
								"localhost"
							],
							"port": "8001",
							"path": [
								"services"
							]
						}
					},
					"response": []
				},
				{
					"name": "Create Product Service",
					"request": {
						"method": "POST",
						"header": [],
						"body": {
							"mode": "urlencoded",
							"urlencoded": [
								{
									"key": "name",
									"value": "product_service",
									"type": "text"
								},
								{
									"key": "url",
									"value": "http://172.31.192.1:9993",
									"type": "text"
								}
							]
						},
						"url": {
							"raw": "http://localhost:8001/services",
							"protocol": "http",
							"host": [
								"localhost"
							],
							"port": "8001",
							"path": [
								"services"
							]
						}
					},
					"response": []
				},
				{
					"name": "Patch Product Service",
					"request": {
						"method": "PATCH",
						"header": [],
						"body": {
							"mode": "urlencoded",
							"urlencoded": [
								{
									"key": "url",
									"value": "http://172.31.192.1:9993",
									"type": "text"
								},
								{
									"key": "name",
									"value": "product_service",
									"type": "default"
								}
							]
						},
						"url": {
							"raw": "localhost:8001/services/product_service",
							"host": [
								"localhost"
							],
							"port": "8001",
							"path": [
								"services",
								"product_service"
							]
						}
					},
					"response": []
				},
				{
					"name": "Create Product Service Route",
					"request": {
						"method": "POST",
						"header": [],
						"body": {
							"mode": "urlencoded",
							"urlencoded": [
								{
									"key": "paths[]",
									"value": "/products",
									"type": "text"
								},
								{
									"key": "name",
									"value": "product_service_route",
									"type": "text"
								}
							]
						},
						"url": {
							"raw": "http://localhost:8001/services/product_service/routes",
							"protocol": "http",
							"host": [
								"localhost"
							],
							"port": "8001",
							"path": [
								"services",
								"product_service",
								"routes"
							]
						}
					},
					"response": []
				},
				{
					"name": "Patch Product Service Route",
					"request": {
						"method": "PATCH",
						"header": [],
						"body": {
							"mode": "urlencoded",
							"urlencoded": [
								{
									"key": "paths[]",
									"value": "/products",
									"type": "default"
								}
							]
						},
						"url": {
							"raw": "localhost:8001/services/product_service/routes/product_service_route",
							"host": [
								"localhost"
							],
							"port": "8001",
							"path": [
								"services",
								"product_service",
								"routes",
								"product_service_route"
							]
						}
					},
					"response": []
				},
				{
					"name": "Get Product Service Route",
					"request": {
						"method": "GET",
						"header": [],
						"url": {
							"raw": "http://localhost:8001/services/product_service/routes/product_service_route",
							"protocol": "http",
							"host": [
								"localhost"
							],
							"port": "8001",
							"path": [
								"services",
								"product_service",
								"routes",
								"product_service_route"
							]
						}
					},
					"response": []
				},
				{
					"name": "Create Cart Gateway Service",
					"request": {
						"method": "POST",
						"header": [],
						"body": {
							"mode": "urlencoded",
							"urlencoded": [
								{
									"key": "name",
									"value": "cart_gateway_service",
									"type": "text"
								},
								{
									"key": "url",
									"value": "http://localhost:9994",
									"type": "text"
								}
							]
						},
						"url": {
							"raw": "http://localhost:8001/services",
							"protocol": "http",
							"host": [
								"localhost"
							],
							"port": "8001",
							"path": [
								"services"
							]
						}
					},
					"response": []
				},
				{
					"name": "Patch Cart Gateway Service",
					"request": {
						"method": "PATCH",
						"header": [],
						"body": {
							"mode": "urlencoded",
							"urlencoded": [
								{
									"key": "url",
									"value": "http://172.31.192.1:9995",
									"type": "text"
								},
								{
									"key": "name",
									"value": "cart_gateway_service",
									"type": "default"
								}
							]
						},
						"url": {
							"raw": "localhost:8001/services/cart_gateway_service",
							"host": [
								"localhost"
							],
							"port": "8001",
							"path": [
								"services",
								"cart_gateway_service"
							]
						}
					},
					"response": []
				},
				{
					"name": "Create Cart Gateway Service Route",
					"request": {
						"method": "POST",
						"header": [],
						"body": {
							"mode": "urlencoded",
							"urlencoded": [
								{
									"key": "paths[]",
									"value": "/carts",
									"type": "text"
								},
								{
									"key": "name",
									"value": "cart_gateway_service",
									"type": "text"
								}
							]
						},
						"url": {
							"raw": "http://localhost:8001/services/cart_gateway_service/routes",
							"protocol": "http",
							"host": [
								"localhost"
							],
							"port": "8001",
							"path": [
								"services",
								"cart_gateway_service",
								"routes"
							]
						}
					},
					"response": []
				},
				{
					"name": "Patch Cart Gateway Service Route",
					"request": {
						"method": "PATCH",
						"header": [],
						"body": {
							"mode": "urlencoded",
							"urlencoded": [
								{
									"key": "name",
									"value": "cart_gateway_service_route",
									"type": "text"
								},
								{
									"key": "paths[]",
									"value": "/carts",
									"type": "default"
								}
							]
						},
						"url": {
							"raw": "localhost:8001/services/cart_gateway_service/routes/cart_gateway_service_route",
							"host": [
								"localhost"
							],
							"port": "8001",
							"path": [
								"services",
								"cart_gateway_service",
								"routes",
								"cart_gateway_service_route"
							]
						}
					},
					"response": []
				},
				{
					"name": "Rate Limit Product Service",
					"request": {
						"method": "POST",
						"header": [],
						"body": {
							"mode": "urlencoded",
							"urlencoded": [
								{
									"key": "name",
									"value": "rate-limiting",
									"type": "text"
								},
								{
									"key": "config.second",
									"value": "20",
									"type": "text"
								},
								{
									"key": "config.hour",
									"value": "10000",
									"type": "text"
								},
								{
									"key": "config.policy",
									"value": "local",
									"type": "text"
								}
							]
						},
						"url": {
							"raw": "http://localhost:8001/services/product_service/plugins",
							"protocol": "http",
							"host": [
								"localhost"
							],
							"port": "8001",
							"path": [
								"services",
								"product_service",
								"plugins"
							]
						}
					},
					"response": []
				}
			]
		},
		{
			"name": "kong OAuth2 plugin",
			"item": [
				{
					"name": "Product Service Setup oauth2 plugin ",
					"request": {
						"method": "POST",
						"header": [],
						"body": {
							"mode": "urlencoded",
							"urlencoded": [
								{
									"key": "name",
									"value": "oauth2",
									"type": "text"
								},
								{
									"key": "config.scopes",
									"value": "read",
									"type": "text"
								},
								{
									"key": "config.scopes",
									"value": "write",
									"type": "text"
								},
								{
									"key": "config.mandatory_scope",
									"value": "true",
									"type": "text"
								},
								{
									"key": "config.enable_password_grant",
									"value": "true",
									"type": "text"
								},
								{
									"key": "config.accept_http_if_already_terminated",
									"value": "true",
									"type": "text"
								},
								{
									"key": "config.token_expiration",
									"value": "600",
									"type": "text"
								},
								{
									"key": "config.global_credentials",
									"value": "true",
									"type": "text"
								}
							]
						},
						"url": {
							"raw": "http://localhost:8001/services/product_service/plugins",
							"protocol": "http",
							"host": [
								"localhost"
							],
							"port": "8001",
							"path": [
								"services",
								"product_service",
								"plugins"
							]
						}
					},
					"response": []
				},
				{
					"name": "Cart Gateway Service Setup oauth2 plugin",
					"request": {
						"method": "POST",
						"header": [],
						"body": {
							"mode": "urlencoded",
							"urlencoded": [
								{
									"key": "name",
									"value": "oauth2",
									"type": "text"
								},
								{
									"key": "config.scopes",
									"value": "read",
									"type": "text"
								},
								{
									"key": "config.scopes",
									"value": "write",
									"type": "text"
								},
								{
									"key": "config.mandatory_scope",
									"value": "true",
									"type": "text"
								},
								{
									"key": "config.enable_password_grant",
									"value": "true",
									"type": "text"
								},
								{
									"key": "config.accept_http_if_already_terminated",
									"value": "true",
									"type": "text"
								},
								{
									"key": "config.token_expiration",
									"value": "600",
									"type": "text"
								},
								{
									"key": "config.global_credentials",
									"value": "true",
									"type": "text"
								}
							]
						},
						"url": {
							"raw": "http://localhost:8001/services/cart_gateway_service/plugins",
							"protocol": "http",
							"host": [
								"localhost"
							],
							"port": "8001",
							"path": [
								"services",
								"cart_gateway_service",
								"plugins"
							]
						}
					},
					"response": []
				},
				{
					"name": "Create Consumer",
					"request": {
						"method": "POST",
						"header": [],
						"body": {
							"mode": "urlencoded",
							"urlencoded": [
								{
									"key": "username",
									"value": "badong3@mailinator.com",
									"type": "text"
								},
								{
									"key": "custom_id",
									"value": "100003",
									"type": "text"
								}
							]
						},
						"url": {
							"raw": "http://localhost:8001/consumers/",
							"protocol": "http",
							"host": [
								"localhost"
							],
							"port": "8001",
							"path": [
								"consumers",
								""
							]
						}
					},
					"response": []
				},
				{
					"name": "Apply Consumer",
					"request": {
						"method": "POST",
						"header": [],
						"body": {
							"mode": "urlencoded",
							"urlencoded": [
								{
									"key": "name",
									"value": "My Third Kong",
									"type": "text"
								},
								{
									"key": "client_id",
									"value": "CLIENT_ID_100003",
									"type": "text"
								},
								{
									"key": "client_secret",
									"value": "CLIENT_SECRET_100003",
									"type": "text"
								},
								{
									"key": "redirect_uris",
									"value": "http://localhost:8806/tp",
									"type": "text"
								}
							]
						},
						"url": {
							"raw": "http://localhost:8001/consumers/badong3@mailinator.com/oauth2",
							"protocol": "http",
							"host": [
								"localhost"
							],
							"port": "8001",
							"path": [
								"consumers",
								"badong3@mailinator.com",
								"oauth2"
							]
						}
					},
					"response": []
				},
				{
					"name": "Generate Token",
					"event": [
						{
							"listen": "test",
							"script": {
								"exec": [
									"var jsonData = JSON.parse(responseBody);\r",
									"postman.setEnvironmentVariable(\"authorization\", jsonData.access_token);"
								],
								"type": "text/javascript"
							}
						}
					],
					"request": {
						"method": "POST",
						"header": [],
						"body": {
							"mode": "raw",
							"raw": "{\r\n    \"client_id\": \"CLIENT_ID_100003\",\r\n    \"client_secret\": \"CLIENT_SECRET_100003\",\r\n    \"grant_type\": \"password\",\r\n    \"provision_key\": \"YDUB7Kv9Ib45wDByguquCNR8uIMoVLuj\",\r\n    \"authenticated_userid\": \"badong3@mailinator.com\",\r\n    \"scope\": \"read\"\r\n}",
							"options": {
								"raw": {
									"language": "json"
								}
							}
						},
						"url": {
							"raw": "https://localhost:8443/products/oauth2/token",
							"protocol": "https",
							"host": [
								"localhost"
							],
							"port": "8443",
							"path": [
								"products",
								"oauth2",
								"token"
							]
						}
					},
					"response": []
				},
				{
					"name": "Generate Token Cart Gateway",
					"event": [
						{
							"listen": "test",
							"script": {
								"exec": [
									"var jsonData = JSON.parse(responseBody);\r",
									"postman.setEnvironmentVariable(\"cart-gateway-authorization\", jsonData.access_token);"
								],
								"type": "text/javascript"
							}
						}
					],
					"request": {
						"method": "POST",
						"header": [],
						"body": {
							"mode": "raw",
							"raw": "{\r\n    \"client_id\": \"CLIENT_ID_100003\",\r\n    \"client_secret\": \"CLIENT_SECRET_100003\",\r\n    \"grant_type\": \"password\",\r\n    \"provision_key\": \"ypNrs9JU2TAYEeYmMAhd71JAcualweJA\",\r\n    \"authenticated_userid\": \"badong3@mailinator.com\",\r\n    \"scope\": \"read\"\r\n}",
							"options": {
								"raw": {
									"language": "json"
								}
							}
						},
						"url": {
							"raw": "https://localhost:8443/carts/oauth2/token",
							"protocol": "https",
							"host": [
								"localhost"
							],
							"port": "8443",
							"path": [
								"carts",
								"oauth2",
								"token"
							]
						}
					},
					"response": []
				},
				{
					"name": "Refresh Token",
					"event": [
						{
							"listen": "test",
							"script": {
								"exec": [
									"var jsonData = JSON.parse(responseBody);\r",
									"postman.setEnvironmentVariable(\"authorization\", jsonData.access_token);"
								],
								"type": "text/javascript"
							}
						}
					],
					"request": {
						"method": "POST",
						"header": [],
						"body": {
							"mode": "raw",
							"raw": "{\r\n    \"grant_type\": \"refresh_token\",\r\n    \"client_id\": \"CLIENT_ID_100001\",\r\n    \"client_secret\": \"CLIENT_SECRET_100001\",\r\n    \"refresh_token\": \"jN5aoFIPVil5AybI7d9R3NvIkqKCA2RU\"\r\n}",
							"options": {
								"raw": {
									"language": "json"
								}
							}
						},
						"url": {
							"raw": "https://localhost:8443/products/oauth2/token",
							"protocol": "https",
							"host": [
								"localhost"
							],
							"port": "8443",
							"path": [
								"products",
								"oauth2",
								"token"
							]
						}
					},
					"response": []
				}
			]
		},
		{
			"name": "kong-requests",
			"item": [
				{
					"name": "Cart",
					"item": [
						{
							"name": "Create Cart",
							"request": {
								"auth": {
									"type": "bearer",
									"bearer": [
										{
											"key": "token",
											"value": "{{cart-gateway-authorization}}",
											"type": "string"
										}
									]
								},
								"method": "POST",
								"header": [],
								"body": {
									"mode": "raw",
									"raw": "[\r\n    {\r\n        \"productId\": \"{{productId}}\",\r\n        \"quantity\": 5\r\n    }\r\n]",
									"options": {
										"raw": {
											"language": "json"
										}
									}
								},
								"url": {
									"raw": "http://localhost:8000/carts/carts",
									"protocol": "http",
									"host": [
										"localhost"
									],
									"port": "8000",
									"path": [
										"carts",
										"carts"
									]
								}
							},
							"response": []
						},
						{
							"name": "Add to Cart",
							"request": {
								"auth": {
									"type": "bearer",
									"bearer": [
										{
											"key": "token",
											"value": "{{cart-gateway-authorization}}",
											"type": "string"
										}
									]
								},
								"method": "POST",
								"header": [],
								"body": {
									"mode": "raw",
									"raw": "[\r\n    {\r\n        \"productId\": \"3f2b365d-1a99-49b7-95ae-28a1e2290578\",\r\n        \"quantity\": 1\r\n    }\r\n]",
									"options": {
										"raw": {
											"language": "json"
										}
									}
								},
								"url": {
									"raw": "http://localhost:8000/carts/carts/{{cartId}}/orders",
									"protocol": "http",
									"host": [
										"localhost"
									],
									"port": "8000",
									"path": [
										"carts",
										"carts",
										"{{cartId}}",
										"orders"
									]
								}
							},
							"response": []
						},
						{
							"name": "View Cart",
							"request": {
								"auth": {
									"type": "bearer",
									"bearer": [
										{
											"key": "token",
											"value": "{{cart-gateway-authorization}}",
											"type": "string"
										}
									]
								},
								"method": "GET",
								"header": [],
								"url": {
									"raw": "http://localhost:8000/carts/carts/809d9616-4184-43c2-b932-31d9578e35f6",
									"protocol": "http",
									"host": [
										"localhost"
									],
									"port": "8000",
									"path": [
										"carts",
										"carts",
										"809d9616-4184-43c2-b932-31d9578e35f6"
									]
								}
							},
							"response": []
						},
						{
							"name": "Update Cart",
							"request": {
								"auth": {
									"type": "bearer",
									"bearer": [
										{
											"key": "token",
											"value": "{{cart-gateway-authorization}}",
											"type": "string"
										}
									]
								},
								"method": "PUT",
								"header": [],
								"body": {
									"mode": "raw",
									"raw": "[\r\n    {\r\n        \"id\": \"7ef8bb0e-e7c7-11ed-82b1-0242ac1e0002\",\r\n        \"quantity\": 3\r\n    }\r\n]",
									"options": {
										"raw": {
											"language": "json"
										}
									}
								},
								"url": {
									"raw": "http://localhost:8000/carts/carts/809d9616-4184-43c2-b932-31d9578e35f6",
									"protocol": "http",
									"host": [
										"localhost"
									],
									"port": "8000",
									"path": [
										"carts",
										"carts",
										"809d9616-4184-43c2-b932-31d9578e35f6"
									]
								}
							},
							"response": []
						},
						{
							"name": "Delete Orders From Cart",
							"request": {
								"method": "DELETE",
								"header": [],
								"body": {
									"mode": "raw",
									"raw": "[\r\n    \"86dce3f1-e685-11ed-966f-0242ac110002\",\r\n    \"b4cf0d56-e67d-11ed-966f-0242ac110002\",\r\n    \"ca493c90-e685-11ed-966f-0242ac110002\",\r\n    \"ca49ac6f-e685-11ed-966f-0242ac110002\",\r\n    \"f1f8dea3-e686-11ed-966f-0242ac110002\"\r\n]",
									"options": {
										"raw": {
											"language": "json"
										}
									}
								},
								"url": {
									"raw": "http://localhost:8000/carts/carts/3171ad56-9d4b-4891-aaa7-dce32051cee2/orders",
									"protocol": "http",
									"host": [
										"localhost"
									],
									"port": "8000",
									"path": [
										"carts",
										"carts",
										"3171ad56-9d4b-4891-aaa7-dce32051cee2",
										"orders"
									]
								}
							},
							"response": []
						},
						{
							"name": "Checkout Cart",
							"request": {
								"method": "POST",
								"header": [],
								"url": {
									"raw": "http://localhost:8000/carts/carts/809d9616-4184-43c2-b932-31d9578e35f2/checkout",
									"protocol": "http",
									"host": [
										"localhost"
									],
									"port": "8000",
									"path": [
										"carts",
										"carts",
										"809d9616-4184-43c2-b932-31d9578e35f2",
										"checkout"
									]
								}
							},
							"response": []
						}
					]
				},
				{
					"name": "Product",
					"item": [
						{
							"name": "Get Products",
							"request": {
								"auth": {
									"type": "bearer",
									"bearer": [
										{
											"key": "token",
											"value": "{{authorization}}",
											"type": "string"
										}
									]
								},
								"method": "GET",
								"header": [],
								"url": {
									"raw": "http://localhost:8000/products/products",
									"protocol": "http",
									"host": [
										"localhost"
									],
									"port": "8000",
									"path": [
										"products",
										"products"
									]
								}
							},
							"response": []
						},
						{
							"name": "Create Product",
							"request": {
								"auth": {
									"type": "bearer",
									"bearer": [
										{
											"key": "token",
											"value": "{{authorization}}",
											"type": "string"
										}
									]
								},
								"method": "POST",
								"header": [],
								"body": {
									"mode": "raw",
									"raw": "{\r\n    \"name\":\"Brand 2\",\r\n    \"description\":\"Brand 2 description\",\r\n    \"code\":\"Brand 2 Code\"\r\n}",
									"options": {
										"raw": {
											"language": "json"
										}
									}
								},
								"url": {
									"raw": "http://localhost:8000/products/products",
									"protocol": "http",
									"host": [
										"localhost"
									],
									"port": "8000",
									"path": [
										"products",
										"products"
									]
								}
							},
							"response": [
								{
									"name": "Create Brand 1",
									"originalRequest": {
										"method": "POST",
										"header": [],
										"body": {
											"mode": "raw",
											"raw": "{\r\n    \"name\":\"Brand 1\",\r\n    \"description\":\"Brand 1 description\",\r\n    \"code\":\"Brand 1 Code\"\r\n}",
											"options": {
												"raw": {
													"language": "json"
												}
											}
										},
										"url": {
											"raw": "http://localhost:8000/products/products",
											"protocol": "http",
											"host": [
												"localhost"
											],
											"port": "8000",
											"path": [
												"products",
												"products"
											]
										}
									},
									"_postman_previewlanguage": null,
									"header": null,
									"cookie": [],
									"body": null
								},
								{
									"name": "Create Brand 2",
									"originalRequest": {
										"method": "POST",
										"header": [],
										"body": {
											"mode": "raw",
											"raw": "{\r\n    \"name\":\"Brand 2\",\r\n    \"description\":\"Brand 2 description\",\r\n    \"code\":\"Brand 2 Code\"\r\n}",
											"options": {
												"raw": {
													"language": "json"
												}
											}
										},
										"url": {
											"raw": "http://localhost:8000/products/products",
											"protocol": "http",
											"host": [
												"localhost"
											],
											"port": "8000",
											"path": [
												"products",
												"products"
											]
										}
									},
									"_postman_previewlanguage": null,
									"header": null,
									"cookie": [],
									"body": null
								}
							]
						},
						{
							"name": "Patch Product",
							"request": {
								"method": "PATCH",
								"header": [],
								"body": {
									"mode": "raw",
									"raw": "{\r\n    \"name\": \"Brand 1\",\r\n    \"description\": \"Brand 1 description\",\r\n    \"code\": \"Brand 1 Codes\"\r\n}",
									"options": {
										"raw": {
											"language": "json"
										}
									}
								},
								"url": {
									"raw": "http://localhost:8000/products/products/173a41b4-4802-486e-a490-6e41a46c1213",
									"protocol": "http",
									"host": [
										"localhost"
									],
									"port": "8000",
									"path": [
										"products",
										"products",
										"173a41b4-4802-486e-a490-6e41a46c1213"
									]
								}
							},
							"response": []
						}
					]
				},
				{
					"name": "Inventory",
					"item": [
						{
							"name": "Add Inventory",
							"request": {
								"auth": {
									"type": "bearer",
									"bearer": [
										{
											"key": "token",
											"value": "{{authorization}}",
											"type": "string"
										}
									]
								},
								"method": "POST",
								"header": [],
								"body": {
									"mode": "raw",
									"raw": "{\r\n    \"quantity\": 500000\r\n}",
									"options": {
										"raw": {
											"language": "json"
										}
									}
								},
								"url": {
									"raw": "http://localhost:8000/products/products/{{productId}}/inventories",
									"protocol": "http",
									"host": [
										"localhost"
									],
									"port": "8000",
									"path": [
										"products",
										"products",
										"{{productId}}",
										"inventories"
									]
								}
							},
							"response": []
						},
						{
							"name": "Get Inventories",
							"request": {
								"auth": {
									"type": "bearer",
									"bearer": [
										{
											"key": "token",
											"value": "{{authorization}}",
											"type": "string"
										}
									]
								},
								"method": "GET",
								"header": [],
								"url": {
									"raw": "http://localhost:8000/products/inventories",
									"protocol": "http",
									"host": [
										"localhost"
									],
									"port": "8000",
									"path": [
										"products",
										"inventories"
									]
								}
							},
							"response": []
						}
					]
				}
			]
		},
		{
			"name": "Others",
			"item": [
				{
					"name": "Verify Inventory Stock",
					"request": {
						"method": "POST",
						"header": [],
						"body": {
							"mode": "raw",
							"raw": "{\r\n    \"quantity\":545454545\r\n}",
							"options": {
								"raw": {
									"language": "json"
								}
							}
						},
						"url": {
							"raw": "http://localhost:9993/products/3f2b365d-1a99-49b7-95ae-28a1e2290578/inventories/verification",
							"protocol": "http",
							"host": [
								"localhost"
							],
							"port": "9993",
							"path": [
								"products",
								"3f2b365d-1a99-49b7-95ae-28a1e2290578",
								"inventories",
								"verification"
							]
						}
					},
					"response": []
				}
			]
		}
	],
	"variable": [
		{
			"key": "productId",
			"value": "93f203f7-d0f5-4ba3-8a8a-cc1e2d6240a9"
		}
	]
}